Nome: José
Notas: 8.0 5.0 6.0 
Faltas: 17
Média: 6.33
Resultado: RF
--------------------
Nome: Maria
Notas: 8.35 7.25 6.5 
Faltas: 2
Média: 7.37
Resultado: AP
--------------------
Nome: Alice
Notas: 4.22 3.77 6.33 
Faltas: 4
Média: 4.77
Resultado: RM
--------------------
